module gokanji

go 1.16

require (
	github.com/alecthomas/template v0.0.0-20190718012654-fb15b899a751
	github.com/go-pg/pg/v10 v10.10.3
	github.com/go-playground/validator/v10 v10.8.0
	github.com/json-iterator/go v1.1.11
	github.com/labstack/echo/v4 v4.4.0
	github.com/spf13/viper v1.8.1
	github.com/swaggo/echo-swagger v1.1.0
	github.com/swaggo/swag v1.7.0
	golang.org/x/crypto v0.0.0-20210711020723-a769d52b0f97
)
